[
  "dropboxx\\.ga",
  "youutube\\.ga",
  "orjexmodder\\.tk",
  "linkit\\.ml",
  "ip\\.jlynx\\.net",
  "grabbify\\.tk",
  "grabbify\\.link",
  "grabbify\\.ga",
  "dropboxx\\.ga",
  "avoxhosting\\.tk"
]
